{
	"info": {
		"_postman_id": "a289a435-ff10-4308-9286-50a9d13bd4cd",
		"name": "Projeto",
		"schema": "https://schema.getpostman.com/json/collection/v2.1.0/collection.json"
	},
	"item": [
		{
			"name": "Clientes",
			"item": [
				{
					"name": "Consulta Geral Cliente",
					"request": {
						"method": "GET",
						"header": [],
						"url": {
							"raw": "http://localhost:8080/clientes",
							"protocol": "http",
							"host": [
								"localhost"
							],
							"port": "8080",
							"path": [
								"clientes"
							]
						}
					},
					"response": []
				},
				{
					"name": "Gravar Clientes",
					"request": {
						"method": "POST",
						"header": [
							{
								"key": "access",
								"value": "1234",
								"type": "default"
							}
						],
						"body": {
							"mode": "raw",
							"raw": "{\r\n    \"nome\":\"Kauã\"\r\n}",
							"options": {
								"raw": {
									"language": "json"
								}
							}
						},
						"url": {
							"raw": "http://localhost:8080/clientes?access=1234",
							"protocol": "http",
							"host": [
								"localhost"
							],
							"port": "8080",
							"path": [
								"clientes"
							],
							"query": [
								{
									"key": "access",
									"value": "1234"
								}
							]
						}
					},
					"response": []
				},
				{
					"name": "Funcionarios",
					"request": {
						"method": "DELETE",
						"header": [
							{
								"key": "access",
								"value": "54321",
								"type": "default"
							}
						],
						"body": {
							"mode": "raw",
							"raw": "{\r\n    \"nome\":\"Kauã\"\r\n}",
							"options": {
								"raw": {
									"language": "json"
								}
							}
						},
						"url": {
							"raw": "http://localhost:8080/funcionarios/:valor",
							"protocol": "http",
							"host": [
								"localhost"
							],
							"port": "8080",
							"path": [
								"funcionarios",
								":valor"
							],
							"variable": [
								{
									"key": "valor",
									"value": "Kauã"
								}
							]
						}
					},
					"response": []
				},
				{
					"name": "Funcionarios",
					"request": {
						"method": "PUT",
						"header": [
							{
								"key": "access",
								"value": "17",
								"type": "default"
							}
						],
						"body": {
							"mode": "raw",
							"raw": "{\r\n    \"nome\":\"Kauã\"\r\n}",
							"options": {
								"raw": {
									"language": "json"
								}
							}
						},
						"url": {
							"raw": "http://localhost:8080/funcionarios?=Kauã",
							"protocol": "http",
							"host": [
								"localhost"
							],
							"port": "8080",
							"path": [
								"funcionarios"
							],
							"query": [
								{
									"key": null,
									"value": "Kauã"
								}
							]
						}
					},
					"response": []
				}
			]
		}
	]
}